communityID,timestamp,text,change_type
arguswow.com,20190101,"To pretend you're a gamemaster, threaten with mute/ban or say you have GM friends/relatives that will favor you in any way;",changed_before
arguswow.com,20190101,To trade characters in-game or selling them for real money;,changed_before
arguswow.com,20190101,"Honor farming (kill your own characters or do that with another player, both agreeing);",changed_before
arguswow.com,20190101,"Gamemasters are above players when it comes to hierarchy, thus any attempt to defy them will result in any punishment the GM wants (most probably permanent ban);",changed_before
arguswow.com,20190719,"To pretend you're a gamemaster, threaten other players with mute/ban or say you have GM friends/relatives that will favor you in any way;",changed_after
arguswow.com,20190719,To trade characters in-game or sell them for real money;,changed_after
arguswow.com,20190719,Honor farming (kill your own characters or do that with another player by agreement);,changed_after
arguswow.com,20190719,"Game masters are above players when it comes to hierarchy, thus any attempt to defy them will result in any punishment the GM wants (most probably permanent ban);",changed_after
hellfire-tbc.com,20161119,Up to five accounts per player are allowed in PVE without the use of third party software.,changed_before
hellfire-tbc.com,20161119,Abuse of multi-accounts in PVP (including but not limited to PVPing while PVEing) will be punished by a ban across all accounts associated with player's IP.,changed_before
hellfire-tbc.com,20170719,Up to five accounts per player are allowed in PVE without the use of third party software.,changed_after
hellfire-tbc.com,20170719,Use of multi-accounts in PVP (including but not limited to PVP'ing while PVE'ing) will be punished by a ban across all accounts associated with player's IP.,changed_after
heroes-wow.com,20131021,We will not provide refunds under any circumstances.ne at your own risk.,changed_before
heroes-wow.com,20131021,"VIP Membership is voluntary, and if a user does not wish to be a member, he should not seek entry.",changed_before
heroes-wow.com,20131021,"If you are banned due to violation of our player rules, you will not get a refund.",changed_before
heroes-wow.com,20131021,"If you do not like the service, you will not get a refund.",changed_before
heroes-wow.com,20131021,"If you unexpectedly did not receive your certificate, and don't have any proof of your purchase, you will not get a refund.",changed_before
heroes-wow.com,20131021,"You may appeal your case regarding your purchase on the forums in the VIP Issues section, and we will review your case.",changed_before
heroes-wow.com,20131021,It's not required for you to make a purchase to enjoy the full experience of Heroes-WoW it's completely optional and is done at your own risk.,changed_before
heroes-wow.com,20131021,Any attempts to reverse payment on a purchase will be met with an automatic and immediate permanent ban.,changed_before
heroes-wow.com,20131021,All accounts tied to this IP address will be permanently banned.,changed_before
heroes-wow.com,20131021,Our accounting team always contests each and every charge back and has a high success rate.,changed_before
heroes-wow.com,20131021,"If this fails, charge backs are routinely sent to a third-party collections agency, and the buyer's credit history will be affected if the charge is not paid for.",changed_before
heroes-wow.com,20131021,"It is in the policies of Heroes-WoW that you are not allowed to trade, share, sell or gift an account or character to a third person. ",changed_before
heroes-wow.com,20131021,Keep your connection informations to yourself. Heroes-WoW staff will never ask you for your account informations i.e. password.,changed_before
heroes-wow.com,20131021,Violators will be punished by a ban.,changed_before
heroes-wow.com,20190719,We will not provide refunds under any circumstances.,changed_after
heroes-wow.com,20190719,"VIP Membership is voluntary, and if a user does not wish to be a member, he should not seek entry.",changed_after
heroes-wow.com,20190719,"If you are banned due to violation of our player rules, you will not get a refund.",changed_after
heroes-wow.com,20190719,"If you do not like the service, you will not get a refund.",changed_after
heroes-wow.com,20190719,"If you unexpectedly did not receive your certificate, and don't have any proof of your donation, you will not get a refund.",changed_after
heroes-wow.com,20190719,"You may appeal your case regarding your donation on the forums in the VIP Issues section, and we will review your case.",changed_after
heroes-wow.com,20190719,It's not required for you to make a donation to enjoy the full experience of Heroes-WoW it's completely optional and is done at your own risk.,changed_after
heroes-wow.com,20190719,Any attempts to reverse donation will be met with an automatic and immediate permanent ban.,changed_after
heroes-wow.com,20190719,All accounts tied to this IP address will be permanently banned.,changed_after
heroes-wow.com,20190719,Our accounting team always contests each and every charge back and has a high success rate.,changed_after
heroes-wow.com,20190719,"If this fails, charge backs are routinely sent to a third-party collections agency, and the buyer's credit history will be affected if the charge is not paid for.",changed_after
heroes-wow.com,20190719,It is in the policies of Heroes-WoW that you are not allowed to sell an account or character to a third person.,changed_after
heroes-wow.com,20190719,Keep your connection informations to yourself.,changed_after
heroes-wow.com,20190719,If you share or trade an account Staff won't help you in any problems!,changed_after
heroes-wow.com,20190719,Heroes WoW staff won't help you to get account back. Heroes-WoW staff will never ask you for your account informations i.e. password.,changed_after
heroes-wow.com,20190719,Violators will be punished by a ban.,changed_after
neverendless-wow.com,20110405,"This game server and its websites (""Neverendless-WoW"") consist primarily of user-contributed content and locally developed content to Emulate the World of Warcraft experience. ",changed_before
neverendless-wow.com,20110405,"Neverendless-WoW is a game, wherein several forms of interaction between persons are available - text, voice and graphical (in-game) among them.",changed_before
neverendless-wow.com,20110405,"For our purposes, Voice is defined as using our Ventrilo (neverendless.nationvoice.com port: 1337) to interact with other persons of the community in a vocal manner.",changed_before
neverendless-wow.com,20110405,"Text is defined by using IRC, the Forums or In-Game typing to communicate with other persons of the community.",changed_before
neverendless-wow.com,20110405,"Graphical, is defined as the use of one's in-game Character persona to interact with others within the in-game world.",changed_before
neverendless-wow.com,20110405,"Finally, RL conduct is conduct engaged in by a real person and not the fictional character they have created - activities typically done when using e-mail, instant messengers, or activities done away from a computer.",changed_before
neverendless-wow.com,20190719,"This game server and its websites (""Neverendless-WoW"") consist primarily of user-contributed content and locally developed content to Emulate the World of Warcraft experience.",changed_after
neverendless-wow.com,20190719,"Neverendless-WoW is a game, wherein several forms of interaction between persons are available - text, voice and graphical (in-game) among them.",changed_after
neverendless-wow.com,20190719,"For our purposes, Voice is defined as using our TeamSpeak (teamspeak.neverendless-wow.com:9215) to interact with other persons of the community in a vocal manner.",changed_after
neverendless-wow.com,20190719,"Text is defined by using IRC, the Forums or In-Game typing to communicate with other persons of the community.",changed_after
neverendless-wow.com,20190719,"Graphical, is defined as the use of one's in-game Character persona to interact with others within the in-game world.",changed_after
neverendless-wow.com,20190719,"Finally, RL conduct is conduct engaged in by a real person and not the fictional character they have created - activities typically done when using e-mail, instant messengers, or activities done away from a computer.",changed_after
retro-wow.com - wb,20180330,Our definition of multiboxing includes any plural of characters being controlled through third party software and/or logging in with multiple accounts.,changed_before
retro-wow.com - wb,20180330,"12, 24, 48 or 72 hours depends on situation.",changed_before
retro-wow.com - wb,20180330,Rule 16) Gambling or casinos,changed_before
retro-wow.com - wb,20180330,Rule 17) Donor bashing,changed_before
retro-wow.com - wb,20180330,"Rule 19) Alt Farming (Gurubashi arena, PvP Tokens)",changed_before
retro-wow.com - wb,20180330,Rule 20) Insulting the server or staff,changed_before
retro-wow.com - wb,20180330,Rule 21) Selling or trading your account,changed_before
retro-wow.com - wb,20190719,Our definition of multiboxing includes any plural of characters being controlled through third party software and/or logging in with multiple accounts.,changed_after
retro-wow.com - wb,20190719,Multiboxing for alt looting is not allowed.,changed_after
retro-wow.com - wb,20190719,"Being logged on two characters at the same time even for ten seconds in a raid, is not allowed.",changed_after
retro-wow.com - wb,20190719,"12, 24, 48, 72 hours, 5 to 7 days, or a permanent ban of the account/s and IP, depends on situation.",changed_after
retro-wow.com - wb,20190719,"Rule 16) Gambling or casinos (Using items, virtual currency, or real life currency to gamble inside the game - all involved in the gambling will be banned, both the ""house"" and players involved in it).",changed_after
retro-wow.com - wb,20190719,"Rule 17) Donor bashing (Disrespecting players that are supporting the server, this includes all kind of insults or harassment).",changed_after
retro-wow.com - wb,20190719,"Rule 19) Alt Farming (Killing your own alt characters or alt characters in general to gain honor, pvp kills or pvp tokens).",changed_after
retro-wow.com - wb,20190719,Rule 20) Insulting the server or staff (Disrespecting gamemasters).,changed_after
retro-wow.com - wb,20190719,"Rule 21) Selling or trading your account (Sharing your account credentials-details with someone else, or selling your account for in-game currency, virtual currency or real life currency).",changed_after
retro-wow.com - wb,20190719,Rule 30) Raid save IDs and Items within raids are the responsibility of the group currently inside the dungeon/raid.,added
retro-wow.com - wb,20190719,GMs will not remove players inside dungeon/raid.,added
rising-gods.de - tickets,20121005,da-mit euch,changed_before
rising-gods.de - tickets,20150419,damit euch,changed_after
rising-gods.de - tickets,20150419,Charakter-Tausch,added
rising-gods.de - tickets,20150419,Realminterner Charakter-Tausch (kein einseitiger Transfer!) zwischen zwei Accounts,added
rising-gods.de - tickets,20150419,Bitte keine Codes im Ticket angeben!,added
rising-gods.de - tickets,20150419,Item-Wiederherstellung,added
rising-gods.de - tickets,20150419,- Fremdserver-Transfer (Einzeln),changed_before
rising-gods.de - tickets,20150419,- Fremdserver-Transfer,changed_after
rising-gods.de - tickets,20150419,- Fusions-Problem,added
rising-gods.de - tickets,20150419,"Meldung diverser Probleme, die im Zusammenhang mit der Realmfusion stehen",added
rising-gods.de - tickets,20150419,Betrifft epische und legendÃ¤re Items,added
rising-gods.de - tickets,20150419,Partneraccount-Anmeldung,added
rising-gods.de - tickets,20121005,Charakter-Transfer (realmÃ¼bergreifend),deleted
rising-gods.de - tickets,20121005,RealmÃ¼bergreifender Charakter-Transfer (bzw. -Tausch),deleted
rising-gods.de - tickets,20121005,Bitte gebt in diesen Tickets den Code an!,deleted
rising-gods.de - tickets,20121005,Familien-/WG-Accountmeldung,deleted
rising-gods.de - tickets,20121005,"Anmeldung von mehreren Accounts, die vorraussichtlich lÃ¤ngerfristig auf einer IP liegen werden.",deleted
rising-gods.de - tickets,20121005,- Fremdserver-Transfer (Gruppe),deleted
rising-gods.de - tickets,20121005,Antrag zum Wechsel auf Rising-Gods,deleted
rising-gods.de - tickets,20121005,BenÃ¶tigte GruppenstÃ¤rke: ca. 10 Personen,deleted
rising-gods.de - tickets,20150419,"Anmeldung von mehreren Accounts, die vorraussichtlich lÃ¤ngerfristig auf einer IP liegen werden.",added
tauriwow.com,20190719,Participating in the tauriwow.com (hereinafter referred to as the operator) online game is bound to the full acceptance and compliance of these terms and conditions.,added
tauriwow.com,20190719,By registering and taking part in the game you agree to follow the terms of use.,added
tauriwow.com,20190719,This document overrides any previous versions of the terms and conditions.,added
tauriwow.com,20190719,Registration is a prerequisite of participating in the game.,added
tauriwow.com,20190719,"Registration is done on the official site, and it is limited to natural person only.",added
tauriwow.com,20190719,"Underage person ensures by accepting the registration that registering, attending to the game, and using the site may only be done under the privilege of their legal guardian.",added
tauriwow.com,20190719,"During registration the user must provide a username, and a legitimate email address.",added
tauriwow.com,20190719,"The chosen username cannot be abusive, obscene, intimidating and may not conflict with morality.",added
tauriwow.com,20190719,Email addresses and domain addresses are not allowed as a username.,added
tauriwow.com,20190719,"The user takes responsibility for the credibility and completeness of the provided data, and also needs to inform the operator about any change of this data in the future (especially about any email address changes).",added
tauriwow.com,20190719,The user is required to prove the authenticity of their data on operator demand.,added
tauriwow.com,20190719,The correct and accepted registration entitles the user of using the database-management service provided by the operator.,added
rising-gods.de - wiki,20080129,Pro Person darf nur ein Account angelegt werden. (GMÂ´s haben 2: Einen GM Account und wenn sie wollen einen Player Account.).,changed_before
rising-gods.de - wiki,20080129,"Verboten sind vulgÃ¤re, sexistische, pornografische sowie rassistische Charakternamen.",changed_before
rising-gods.de - wiki,20080129,Ein VerstoÃŸ wird mit Informierung und Warnung versorgt.,changed_before
rising-gods.de - wiki,20080129,Bei mehrfachen Beleidigungen etc. wird der Player Leveldown gesetzt.,changed_before
rising-gods.de - wiki,20080129,"Jedoch falls das des Ã¶fteren vorkam, oder familienbeleidigende Ã„uÃŸerungen waren kann auch mit Bann gehandelt werden.",changed_before
rising-gods.de - wiki,20080129,Jedoch erst nach einer Absprache der GM's.,changed_before
rising-gods.de - wiki,20080129,Das Weitergeben der Accountdaten bzw. eines Accounts an Dritte ist untersagt und wird mit Accountbannung geahndet.,changed_before
rising-gods.de - wiki,20080129,"Es sei denn ein GM wurde informiert, dass der Account, z.B. im Urlaub eines Users, an einen Freund weiter gegeben wird.",changed_before
rising-gods.de - wiki,20080129,Jedoch ist das dauerhafte weitergeben untersagt.,changed_before
rising-gods.de - wiki,20080129,"8.5 Raids (SchlachtzÃ¼ge): Wenn eine Fraktion eine gegnerische Stadt angreift, dann ist es ihnen zu jeder Zeit erlaubt. Beachtet jedoch, dass ihr von jedem Feind angegriffen werden dÃ¼rft. Die oben genannten Regeln schÃ¼tzen weiterhin die Spieler. FÃ¼r euch gelten diese Regeln allerdings nicht mehr, sobald ihr im Feindgebiet seid.",changed_before
rising-gods.de - wiki,20080129,"9.1 - Betrugsversuche mit Hilfe von Cheats/Hacks: Jegliche Form von Betrugsversuchen sind strengstens untersagt. Wer beim Benutzen von Cheats oder Hacks ertappt und gebannt wird hat kein Widerrufsrecht. Es werden automatisierte Logarithmen eingesetzt, welche Cheater selbststÃ¤ndig bannen und ihren Account unzugÃ¤nglich machen. FÃ¼r eine Sperrung ist kein Gamemaster zu verantworten.",changed_before
rising-gods.de - wiki,20080129,"10.8 GMâ€™s dÃ¼rfen auf keinen Fall den Spielern helfen indem sie mit ihnen leveln gehen, oder wie gesagt Gegner spawnen die nicht da sind.",changed_before
rising-gods.de - wiki,20080129,"10.9 Sollte ein Cheater verdÃ¤chtigt werden, wird .info auf ihn geschrieben und der Accountname und IP aufgeschrieben und .kickban benutzt.",changed_before
rising-gods.de - wiki,20081009,Pro Person dÃ¼rfen nur 2 Accounts angelegt werden. (Gamemaster sind dabei eine Ausnahme).,changed_after
rising-gods.de - wiki,20081009,"Verboten sind vulgÃ¤re, sexistische, pornografische sowie rassistische Charakternamen.",changed_after
rising-gods.de - wiki,20081009,Ein VerstoÃŸ wird mit Informierung und Warnung versorgt.,changed_after
rising-gods.de - wiki,20081009,Bei mehrfachen Beleidigungen etc. wird der Player Leveldown gesetzt.,changed_after
rising-gods.de - wiki,20081009,"Jedoch falls das Ã¶fters vorkommt, oder beleidigende Ã„uÃŸerungen gegenÃ¼ber Familien vorkamen, kann auch mit Bann gehandelt werden.",changed_after
rising-gods.de - wiki,20081009,Dieser wird erst nach einer Absprache der Gamemaster vollzogen.,changed_after
rising-gods.de - wiki,20081009,Das Weitergeben der Accountdaten bzw. eines Accounts an Dritte geschieht auf eigene Gefahr.,changed_after
rising-gods.de - wiki,20081009,Die Gamemaster sind nicht verpflichtet verlorene GegenstÃ¤nde bzw.,changed_after
rising-gods.de - wiki,20081009,Charaktere wiederherzustellen.,changed_after
rising-gods.de - wiki,20081009,"8.5 Raids (SchlachtzÃ¼ge): Das angreifen einer gegnerische Stadt ist zu jeder Zeit erlaubt. Beachtet jedoch, dass ihr von jedem Feind angegriffen werden dÃ¼rft. Die oben genannten Regeln schÃ¼tzen weiterhin die beheimateten Spieler. FÃ¼r euch gelten diese Regeln allerdings nicht mehr, sobald ihr im Feindgebiet seid.",changed_after
rising-gods.de - wiki,20081009,"9.1 - Betrugsversuche mit Hilfe von Cheats/Hacks: Jegliche Form von Betrugsversuchen sind strengstens untersagt. Wer beim Benutzen von Cheats oder Hacks ertappt und gebannt wird hat kein Widerrufsrecht. Es werden automatisierte Algorithmen eingesetzt, welche Cheater selbststÃ¤ndig bannen und ihren Account unzugÃ¤nglich machen. FÃ¼r eine Sperrung ist kein Gamemaster zu verantworten.",changed_after
rising-gods.de - wiki,20081009,"10.8 GMâ€™s dÃ¼rfen auf keinen Fall den Spielern helfen indem sie mit ihnen leveln gehen, oder Gegner spawnen.",changed_after
rising-gods.de - wiki,20081009,"10.9 Sollte ein Spieler des cheatens verdÃ¤chtigt werden, wird .info auf ihn geschrieben und der Accountname und IP aufgeschrieben und .kickban benutzt.",changed_after
rising-gods.de - wiki,20081009,10.15 GMÂ´s sollten wÃ¤rend der Hauptsupportzeit (15:oo-20:oo) Spielern gegenÃ¼ber Unsichtbar bleiben.,added
rising-gods.de - wiki,20081009,10.16 Die GM-Insel ist kein Ort um private Treffen zu veranstallten. Sie dient lediglich dem Support und als Ort zum ZurÃ¼ckziehen fÃ¼r die GM`s. Spieler werden demnach nur zu Supportzwecken auf die Insel geholt.,added
wakerp.com,20170425,"8. When engaging in combat, a proper pvp warning must be indicated. For example, if you are using /e, at the end of your emote include (pvp warning.)",added
wakerp.com,20170425,3. Registering on the website means that you agree to receive mails from administration.,added
wargate-project.org,20170415,"- Attempts to buy or sell gold, characters, items, accounts, Premium Points, Vote Points, premium gifts etc. for real money.",changed_before
wargate-project.org,20170415,- Stealing/cheating on players while trading in-game.,changed_before
wargate-project.org,20170815,"- Attempts to buy or sell gold, characters, items, accounts, Donate Points, Vote Points, donate gifts etc. for real money.",changed_after
wargate-project.org,20170815,"- Trading characters and accounts for gold, items etc.",added
wargate-project.org,20170815,- Stealing/cheating on players while trading in-game/Guild Bank thefts.,changed_after
worldofthegods.com - transfer,20190101,You cannot exchange Coins for Vote or Donor items.,added
worldofthegods.com - transfer,20190101,You cannot exchange Vote or Donor items into coins.,added
worldofthegods.com - transfer,20190101,"This includes: Cata/Mop Coin, Visual Coin, Title Coin, Character Recustomize Coin, Donor coin and Change Class Coin.",added
worldofthegods.com - transfer,20190101,You cannot exchange Donor Coins into another item.,added
worldofthegods.com - transfer,20190101,"(If you bought the donor coin within the last hour, you can exchange it for another item from the donor shop or refund it)",added
worldofthegods.com - transfer,20190101,You cannot exchange free items into non-free items (Vote / Donor).,added
worldofthegods.com - transfer,20190101,You cannot exchange mounts into vote or donor items.,added
worldofthegods.com - transfer,20190101,* No donor items can be changed into V.I.P rank.,added
worldofthegods.com - transfer,20190101,"Also,V.I.P is no longer allowed to be paid for with DP tokens.",added
worldofthegods.com - transfer,20190101,V.I.P rank cannot be exchanged!,added
worldofthegods.com - transfer,20190101,You cannot transfer items from one Character to another.,added
worldofthegods.com - transfer,20190101,"If you exchange an item on your Paladin, the new item will be added on your Paladin aswell.",added
worldofthegods.com - transfer,20190101,You cannot exchange Donor Gear to any other kind of items.,added
worldofthegods.com - transfer,20190101,Only between them (Donor Chest to Donor Head).,added
worldofthegods.com - transfer,20190101,"You cannot exchange one item for another item which is not of the same ""type"".",added
worldofthegods.com - transfer,20190101,"Weapon to Weapon, Offset to Offset, Gear to Gear.",added
worldofthegods.com - transfer,20190101,For example: You cannot exchange your necklace into a weapon or a helm.,added
worldofthegods.com - transfer,20190101,You cannot exchange Donor Items into Donor Points or Donor Tokens.,added
worldofthegods.com - transfer,20190101,This includes exchanging 10DP or 6DP tokens into 1DP tokens - it is NOT allowed.,added
worldofthegods.com - transfer,20190101,You cannot exchange Vote Items into Vote Points.,added
worldofthegods.com - transfer,20190101,You cannot downgrade ANY item.,added
worldofthegods.com - transfer,20190101,"Exchanges for the following are completely free: Old classed based weapons, Upgraded librams & sigils.",added
worldofthegods.com - transfer,20190101,No item/token can be exchanged for platinum strongbox. No platinum strongbox can be exchanged for an item/token.,added
worldofthegods.com - transfer,20190101,* No donor items can be changed into Visualizer Pet.,added
worldofthegods.com - transfer,20190101,"Also, Visualizer Pet is no longer allowed to be paid for with DP tokens.",added
worldofthegods.com - transfer,20190101,Visualizer Pet cannot be exchanged!,added
worldofthegods.com - transfer,20190101,* No donor items can be changed into Guardian Angel Pet.,added
worldofthegods.com - transfer,20190101,"Also, Guardian Angel Pet is no longer allowed to be paid for with DP tokens.",added
worldofthegods.com - transfer,20190101,Guardian Angel Pet cannot be exchanged!,added
worldofthegods.com - transfer,20190101,You cannot exchange items that can still be looted.,added
worldofthegods.com - transfer,20190101,Example: You cannot exchange tier 10 leg coin to tier 10 chest coin. You can farm for them.,added
worldofthegods.com - transfer,20190101,"You cannot exchange donation items into others that cost less, even if it is the same type, example: 1x Uriel the soul edge (10dp) to 1x Andonisus (8dp), the opposite is possible with DP tokens.",added
worldofthegods.com - transfer,20190101,"Exchanges between items/coins/titles/spells (exclusive visual spells)/mounts or ANYTHING else which does NOT have an equal value, is not possible! It does not matter if the value is a price, the way of sourcing, the requirement for a quest, or similar.",added
wow-mania.com,20151214,All donations and purchases are final.,changed_before
wow-mania.com,20151214,Any attempts to reverse or dispute a donation will be met with an immediate permanent ban.,changed_before
wow-mania.com,20190719,"It is strictly forbidden to give access to your account to others, be that a friend or anyone else. This will result in an immediate ban if found out.",added
wow-mania.com,20190719,You are responsible for safeguarding your account and password. Any actions performed by anyone logging into your account will be attributed to you.,added
wow-mania.com,20190719,Do not cheat or break the intended rules of the game. That include exploits found in the game (if you find one inform a GM).,added
wow-mania.com,20190719,"Do not use hacks, bots or any type of memory injection program. The use or promoting the use of any hacking, automation or exploiting tool will be met with an immediate permanent ban.",added
wow-mania.com,20190719,Do not stop others from playing or enjoying the game in any way. Ex.: Killing AH or bank NPCs for a prolonged amount of time.,added
wow-mania.com,20190719,IMPORTANT: We will delete any account that remains inactive (not a single login) for over 18 months. The deletion is final with no chance of recovery.,added
wow-mania.com,20190719,All donations and purchases are final. No exchanges or moves.,changed_after
wow-mania.com,20190719,Any attempts to reverse or dispute a donation will be met with an immediate and permanent ban.,changed_after
www.excalibur.ws,20170511,Punishments for multiboxing and repeatedly AFKing in battlegrounds:,changed_before
www.excalibur.ws,20170511,"19. Staff disrespect anywhere on server grounds (forum, ingame, bug tracker, tickets etc) is forbidden. This includes revealing the Game Master's play characters to non-staff, mocking/trolling a Game Master, spam /inv them, insulting them etc.",changed_before
www.excalibur.ws,20190719,6. Loot ninja'd/stolen or misloot: Players must be careful who they play with or who you distribute the loot to.,added
www.excalibur.ws,20190719,"Report ninjas in our reports forum as a warning to the rest of the community, but the loot will not be corrected by a Game Master.",added
www.excalibur.ws,20190719,"When opening a report, provide clear screenshots, showing your raid group, written loot rules announced by the raid leader and the distribution process of the ninjad item(s), is mandatory.",added
www.excalibur.ws,20190719,20. Character and guild names must not contain any vulgar or offensive words.,added
www.excalibur.ws,20190719,Punishments for offensive names:,added
www.excalibur.ws,20190719,- forced rename,added
www.excalibur.ws,20190719,- for repeated offenders: 7 days account suspension (to scale up with each character/time),added
www.excalibur.ws,20190719,"3. Hacking, botting or exploiting an issue that crashes the server are prohibited.",added
www.excalibur.ws,20190719,Punishments for botting:,added
www.excalibur.ws,20190719,"A. First botting offence: 30 days account suspension and removal of profession, gold and ingredients obtained by botting",added
www.excalibur.ws,20190719,B. Second botting offence: Account termination,added
www.excalibur.ws,20190719,"SPECIAL NOTE: Win trading also includes any involvement in the formation and/or preparation of your opposing team. This includes getting ""prearranged benefits"" like gaining points and/or rating by fighting prearranged undergeared players, or play against own friends/familiars at a specific time with the intention to dodge playing against anyone else.",added
www.excalibur.ws,20190719,"5. Multiboxing, dual-queuing in BGs (disrupting the BG balance by queuing with more than 1 character at a time) and repeatedly AFKing in battlegrounds is not allowed.",added
www.excalibur.ws,20190719,"Punishments for multiboxing, dual-queuing and repeatedly AFKing in battlegrounds:",changed_after
www.excalibur.ws,20190719,"19. Staff disrespect anywhere on server grounds (forum, ingame, bug tracker, tickets etc) is forbidden. This includes revealing the Game Master's play characters to non-staff, disclosing private information, mocking/trolling a Game Master, spam /inv them, insulting them etc.",changed_after
www.therebirth.net,20160102,"The rebirth is community driven. We have a chat channel called global which is currently a cross-faction source of information about the game and server. To join the channel, simply type /join global from your chat window. This chat isn't actively moderated, but we do take actions against racial, religious, and sexual harassments.",changed_before
www.therebirth.net,20190719,"The rebirth is community driven. We have a chat channel called global which is currently a cross-faction source of information about the game and server. To join the channel, simply type /join global from your chat window. This chat is actively moderated, and we do take actions against players not respecting our rules.",changed_after
www.therebirth.net,20190719,"Spamming: Please limit each message to one entry in global, nothing is that important that it needs repeating more than once every couple of minutes.",added
www.therebirth.net,20190719,"""Bad taste"" comments (profanity/sexual/religion/racial): Be respectful of other players in global channels -- we are a global community, after all.",added
www.therebirth.net,20190719,"While we do allow some moderate swearing in chat, keep it under control, as too much swearing, abuse, or attention-seeking may lead to being muted.",added
www.therebirth.net,20190719,"Personal conversations: If you want to communicate for long periods of time with one player, please do it via whisper or personal chat channel; not everyone is interested in hearing it.",added
www.therebirth.net,20190719,"Subjecting other players to harassment is not allowed, and again could lead to a mute or other sanctions.",added
www.therebirth.net,20190719,"Advertising: Please do not use global to advertise for other servers -- you are free to discuss other realms, but do not directly advertise. Adverts for goods and services that are not relevant to the game or gameplay are not allowed.",added
www.therebirth.net,20190719,Adverts for goods and services that are not relevant to the game or gameplay are not allowed.,added
www.therebirth.net,20190719,"You are allowed to dualbox two (2) characters at the same time in the same area, with or without the use of keyclone software, but we don't allow you to initiate any PvP fights while multiboxing, period.",added
www.therebirth.net,20190719,Though you are permitted to defend yourself if neccessary.,added
www.therebirth.net,20160102,"We don't allow a single keypress to perform actions on more than 1 character. IE: Pressing Keybind 1, does an action on your warrior, rogue and hunter with a single keypress (Key clone style).",deleted
www.therebirth.net,20160102,A single keypress must correspond to a single action on a single character.,deleted
www.therebirth.net,20160102,"We also don't allow you to initiate any PvP fights while multiboxing, period.",deleted
www.therebirth.net,20160102,Though you are permitted to defend yourself if neccessary.,deleted
www.warmane.com,20160425,"This is really basic and ""shouldn't"" need further explanations. Players caught making use of cheat programs for example, to Speed Hack or Fly Hack (most common offenses) or other cheats, are banned from the server. ",changed_before
www.warmane.com,20160425,"Do not bother to appeal over a ban with the GM, as they will not discuss it. We do not forgive it, doesn't matter if you love the Server or whatever excuses you may have for it.",changed_before
www.warmane.com,20190429,"This is really basic and ""shouldn't"" need further explanations. Players caught making use of cheat programs for example, to Speed Hack or Fly Hack (most common offenses), transmog weapons or armor of different types or other cheats, are banned from the server. ",changed_after
www.warmane.com,20190429,"Do not bother to appeal over a ban with the GM, as they will not discuss it. This is not acceptable, even if you are donator. It has no relevance when upholding the rules.",changed_after
www.warmane.com,20160425,Casinos: Creating ingame casinos to let people roll for gold or other ingame good is forbidden. Those games end up most of the time as scams and are therefor forbidden.,deleted
www.warmane.com,20190429,Disrupting gameplay: Using minor exploits or poorly designed parts of game mechanics to noticably interfere with other players' gameplay. Examples of such are: Resetting NPCs while other players joust with them on Argent Tournament and joining RDF only to idle and refuse to leave on your own to avoid the debuff.,added
www.warmane.com,20190429,"This does not include playing according to game mechanics and game design like corpse camping in PvP enabled zones, which is not punishable.",added
www.warmane.com,20190429,"Avoiding the debuff: Sitting at the dungeon's door waiting to be kicked because you don't want to do it, forcing people to kick you so you can avoid the debuff is now punishable. Rather wait 30 minutes than a day. Please consider.",added
www.warmane.com,20190429,"Most of these things can't be ban appealed, but you are welcome to try if you believe to be really innocent.",added
www.warmane.com,20190429,Arena Boosting: It is not allowed. neither paid or for free,added
www.warmane.com,20190429,"""Casinos"": Creating ingame casinos to let people roll for gold or other ingame good is forbidden. Those games end up most of the time as scams and are therefor forbidden.",added
www.warmane.com,20190429,IN-GAME NINJA POLICY,added
www.warmane.com,20190429,Please bear in mind that best way to avoid ninjas is common sense and raiding with trusted players or guild.,added
www.warmane.com,20190429,Twinks: Using Pointshop items with no-level requirements on a low level character to have advantage in PVP against any other players is NOT fair.,added
www.warmane.com,20190429,Doesn't matter how many Points or Coins you spent to make it. You are going to have your twink force-leveled and won't be refunded.,added
www.warmane.com,20190429,"Only official Warmane website which allows donations can be used to purchase services via Coins or Points. We don't use other sites, forums, chats (Discord) and we don't offer free Coins on random websites because a fake <GM> said so.",added
www.warmane.com,20190429,"We don't allow any trade of virtual goods for real money be it through forum, chats, game or via 3rd party softwares.",added
www.warmane.com,20160425,"This page does not cover all the rules. If a GM find an unfitting behavior, he or she will punish the player accordingly.",changed_before
www.warmane.com,20190429,"This page does not cover all the rules. If the GM's find an unfitting behavior, they will punish the player accordingly.",changed_after
www.warmane.com,20160425,For Ban Appeals consult this link instead.,changed_before
www.warmane.com,20160425,Don't bother to appeal if you know you are not innocent. This is only for the rare dubious cases or account thefts situations.,changed_before
www.warmane.com,20190429,For Ban Appeals consult this link. ,changed_after
www.warmane.com,20190429,Don't bother to appeal if you know you are not innocent. This is only for the rare dubious cases or account thefts situations.,changed_after
www.warmane.com,20160425,This page may be updated without notice. Check it once in a while.,deleted
www.alpha-realms.com,20160805,"Alpha-Realms is a growing community and it is our goal to establish a friendly, helpful and enjoyable community. In order to make sure that above mentioned aspects are guaranteed, there are some boundaries set which are in form of Rules and Regulations.",changed_before
www.alpha-realms.com,20160805,Alpha-Realms has ZERO tolerance for harassing other community members.,changed_before
www.alpha-realms.com,20160805,"Although the administrators and moderators of Alpha-Realms Community Forum will attempt to keep all objectionable messages off this forum, it is impossible for us to review all messages.",changed_before
www.alpha-realms.com,20160805,"All messages express the views of the author, the staff / moderators will not be held responsible for the content of any message.",changed_before
www.alpha-realms.com,20190719,"Zandalari-WoW is a growing community and it is our goal to establish a friendly, helpful and enjoyable community. In order to make sure that above mentioned aspects are guaranteed, there are some boundaries set which are in form of Rules and Regulations.",changed_after
www.alpha-realms.com,20190719,Zandalari-WoW has ZERO tolerance for harassing other community members.,changed_after
www.alpha-realms.com,20190719,"Although the administrators and moderators of Zandalari-WoW Community Forum will attempt to keep all objectionable messages off this forum, it is impossible for us to review all messages.",changed_after
www.alpha-realms.com,20190719,"All messages express the views of the author, the staff / moderators will not be held responsible for the content of any message.",changed_after
rising-gods.de - wiki,20081009,"8.5 Raids (SchlachtzÃ¼ge): Wenn eine Fraktion eine gegnerische Stadt angreift, dann ist es ihnen zu jeder Zeit erlaubt. Beachtet jedoch, dass ihr von jedem Feind angegriffen werden dÃ¼rft. Die oben genannten Regeln schÃ¼tzen weiterhin die Spieler. FÃ¼r euch gelten diese Regeln allerdings nicht mehr, sobald ihr im Feindgebiet seid.",changed_after
rising-gods.de - wiki,20081009,"9.1 - Betrugsversuche mit Hilfe von Cheats/Hacks: Jegliche Form von Betrugsversuchen sind strengstens untersagt. Wer beim Benutzen von Cheats oder Hacks ertappt und gebannt wird hat kein Widerrufsrecht. Es werden automatisierte Logarithmen eingesetzt, welche Cheater selbststÃ¤ndig bannen und ihren Account unzugÃ¤nglich machen. FÃ¼r eine Sperrung ist kein Gamemaster zu verantworten.",changed_after
rising-gods.de - wiki,20081009,"10.8 GMâ€™s dÃ¼rfen auf keinen Fall den Spielern helfen indem sie mit ihnen leveln gehen, oder wie gesagt Gegner spawnen die nicht da sind.",changed_after
rising-gods.de - wiki,20081009,"10.9 Sollte ein Cheater verdÃ¤chtigt werden, wird .info auf ihn geschrieben und der Accountname und IP aufgeschrieben und .kickban benutzt.",changed_after
rising-gods.de - tickets,20150419,Charakter-Tausch    Character swap,added
rising-gods.de - tickets,20150419,Bitte keine Codes im Ticket angeben!   Please do not enter any codes in the ticket!,added
rising-gods.de - wiki,20080129,"8.5 Raids (SchlachtzÃ¼ge): Wenn eine Fraktion eine gegnerische Stadt angreift, dann ist es ihnen zu jeder Zeit erlaubt. Beachtet jedoch, dass ihr von jedem Feind angegriffen werden dÃ¼rft. Die oben genannten Regeln schÃ¼tzen weiterhin die Spieler. FÃ¼r euch gelten diese Regeln allerdings nicht mehr, sobald ihr im Feindgebiet seid, t",changed_before
heroes-wow.com,20131021,"It is in the policies of Heroes-WoW that you are not allowed to trade, share, sell or gift an account or character to a third person.",changed_before
neverendless-wow.com,20110405,"This game server and its websites (""Neverendless-WoW"") consist primarily of user-contributed content and locally developed content to Emulate the World of Warcraft experience.",changed_before
www.warmane.com,20160425,"This is really basic and ""shouldn't"" need further explanations. Players caught making use of cheat programs for example, to Speed Hack or Fly Hack (most common offenses) or other cheats, are banned from the server.",changed_before
www.warmane.com,20190429,"This is really basic and ""shouldn't"" need further explanations. Players caught making use of cheat programs for example, to Speed Hack or Fly Hack (most common offenses), transmog weapons or armor of different types or other cheats, are banned from the server.",changed_after
www.warmane.com,20160425,"This page does not cover all the rules. If a GM find an unfitting behavior, he or she will punish the player accordingly.",changed_before
www.warmane.com,20190429,For Ban Appeals consult this link.,changed_after
www.warmane.com,20160425,This page may be updated without notice. Check it once in a while.,deleted
www.alpha-realms.com,20160805,"Alpha-Realms is a growing community and it is our goal to establish a friendly, helpful and enjoyable community. In order to make sure that above mentioned aspects are guaranteed, there are some boundaries set which are in form of Rules and Regulations.",changed_before
www.alpha-realms.com,20160805,Alpha-Realms has ZERO tolerance for harassing other community members.,changed_before
www.alpha-realms.com,20190719,"Zandalari-WoW is a growing community and it is our goal to establish a friendly, helpful and enjoyable community. In order to make sure that above mentioned aspects are guaranteed, there are some boundaries set which are in form of Rules and Regulations.",changed_after
rising-gods.de - tickets,20150419,Fusions-Problem,added
www.wowm8.com,20080420,No hacking of any kind. This includes exploiting any known or unknown bugs.,Deleted
www.wowm8.com,20080420,If you are caught exploiting a bug you will be treated like a hacker.,Deleted
www.wowm8.com,20080420,No begging GMs or Admins for anything.,Deleted
www.wowm8.com,20080420,Do not spam in any game channel.,Deleted
www.wowm8.com,20080420,Not respecting this rules will result kick/character ban/IP ban.,Deleted
www.wowm8.com,20090106,"do not use any kind of cheats, hacks or exploits",Added
www.wowm8.com,20090106,do not use bad language on any channel in game,Added
www.wowm8.com,20090106,do not spam in any channel in game,Added
www.wowm8.com,20090106,do not ninja any item or steal kills from other players,Added
www.wowm8.com,20090106,do not spam any kind of advertising in game,Added
www.wowm8.com,20090106,do not beg or ask GMs or Admins for any favors,Added
www.wowm8.com,20090106,do not attack GM's or Admins,Added
www.wowm8.com,20090106,respect GM's and what they ask you to do,Added
www.wowm8.com,20090106,These rules can be changed without notification.,Added
www.wowm8.com,20090106,"Any bad behavior in game will be punished, even if is not in this list!",Added
www.wowm8.com,20090106,If you don't respect these simple rules you will get banned!,Added
www.smolderforge.com - tos,20081108,(e) You agree to our End User License Agreement(EULA) as follows:,Deleted
www.smolderforge.com - tos,20081108,* You will be kind and respectful to all other users including online support(Game Masters).,Deleted
www.smolderforge.com - tos,20081108,* You will not use any types of 3rd party programs to exploit any data in the server or cause unauthorized protocols.,Deleted
www.smolderforge.com - tos,20081108,"* You understand that the support ticketing system is for help and support only, any abuse to this system such as to the following but not limited to: requests for not already provided, vulgar comments, pointless and annoying messages(SPAM).",Deleted
www.smolderforge.com - tos,20081108,* You will also not abuse the communication system provided by this server by such things as spamming and/or including vulgar material or flooding chat screens with spam messages.,Deleted
www.smolderforge.com - tos,20081108,* You agree that any inflictions to these rules can lead to consequences such as suspensions or account closures.,Deleted
www.smolderforge.com - tos,20081108,* You agree that if you are a donor to the server and break these terms you can suffer consequences that no longer make your account available to the things you received. According to this you will NOT receive any type of refund for breaking our terms.,Deleted
www.smolderforge.com - tos,20081108,* You will also agree to Blizzard Entertainment's (c) EULA.,Deleted
www.smolderforge.com - tos,20081108,By providing any Content to our web site:,Deleted
www.smolderforge.com - tos,20081108,"(a) you agree to grant to us a worldwide, royalty-free, perpetual, non-exclusive right and license (including any moral rights or other necessary rights) to use, display, reproduce, modify, adapt, publish, distribute, perform, promote, archive, translate, and to create derivative works and compilations, in whole or in part. Such license will apply with respect to any form, media, technology known or later developed;",Deleted
www.smolderforge.com - tos,20081108,"(b) you warrant and represent that you have all legal, moral, and other rights that may be necessary to grant us with the license set forth in this Section 7; you acknowledge and agree that we shall have the right (but not obligation), in our sole discretion, to refuse to publish or to remove or block access to any Content you provide at any time and for any reason, with or without notice.",Deleted
www.smolderforge.com - tos,20081108,** ToS and EULA are subject to change at any given time.,Deleted
www.smolderforge.com - tos,20120810,(Shall not) Violate any of the following rules and codes of conduct:,Added
www.smolderforge.com - tos,20120810,Be disrespectful to appointed staff in any manner or form.,Added
www.smolderforge.com - tos,20120810,"Use any 3rd-party software to modify the game client in any matter, cause glitches, unauthorized protocols, breach or alter game mechanics, cheat, abuse, bug tampering/abusing, or any other matter to cause an unfair advantage in the game to you, or disrupt the gameplay of other players.",Added
www.smolderforge.com - tos,20120810,"Abuse, spam, or disrupt any of the petitioning systems provided for support servicing purposes. This is applicable, but not limited to: in-game tickets, email, forum threads, and privately send messages.",Added
www.smolderforge.com - tos,20120810,"Abuse the communication system provided by the game server and online website by spamming, advertising, spreading malcontent, hate, racism, insubordination, prejudice, or anything deemed offensive and subject to removal by staff.",Added
www.smolderforge.com - tos,20120810,"Violate, or bypass agreeing to Blizzard Entertainment's End User License Agreement and Terms of Use for World of Warcraft®",Added
www.smolderforge.com - tos,20120810,By providing any Content to our web site:,Added
www.smolderforge.com - tos,20120810,"You agree to grant to us a worldwide, royalty-free, perpetual, non-exclusive right and license (including any moral rights or other necessary rights) to use, display, reproduce, modify, adapt, publish, distribute, perform, promote, archive, translate, and to create derivative works and compilations, in whole or in part. Such license will apply with respect to any form, media, technology known or later developed",Added
www.smolderforge.com - tos,20120810,"You warrant and represent that you have all legal, moral, and other rights that may be necessary to grant us with the license set forth in this Section 6; you acknowledge and agree that we shall have the right (but not obligation), in our sole discretion, to refuse to publish or to remove or block access to any Content you provide at any time and for any reason, with or without notice",Added
www.smolderforge.com - tos,20120810,"You agree and understand that WE RESERVE THE RIGHT TO SUSPEND, TERMINATE, MODIFY, OR DELETE ACCOUNTS AT ANY TIME FOR ANY REASON OR FOR NO REASON, WITH OR WITHOUT NOTICE TO YOU. For purposes of explanation and not limitation, most account suspensions, terminations and/or deletions are the result of violations of this Terms of Use.",Added
atlantiss.eu,20130729,"Administrators are not taking responsibility for the account, its content or information loss.",Deleted
atlantiss.eu,20130729,"Setting up a strong password is the best way to protect if from other people. Remember! Nobody from the Team would want you telling them your account details (like password, mail etc.).",Deleted
atlantiss.eu,20140922,Any objections and appeals must be be reported by a Private Message (PM) to someone from Administration (we require a strong proof and screens/videos). Complaints written on the forum are going to be deleted.,Added
atlantiss.eu,20140922,"The administration staff does not have to show proofs regarding a case. All punishments are discussed earlier, the proofs are checked in a in-depth manner and the punishment is adequate to the violation.",Added
atlantiss.eu,20140922,"Administrators are not taking responsibility for the account, its content or information loss. Setting up a strong password is the best way to protect if from other people. Remember! Nobody from the Team would want you telling them your account details (like password, mail etc.).",Added
atlantiss.eu,20140922,The administration staff takes no responsibility for hacked accounts.,Added
atlantiss.eu,20130729,"If you have any objections of Owner/Moderator's actions, report it - if you are a witness of consecutive kicking/banning let us know about it with a proof (screenshots) and we will take the appropriate action.",Deleted
atlantiss.eu,20140922,"Administrators will only take steps in case of Owner/Moderator inactivity. It refers to any channels despite guild/whisper chat, but only to a certain extent.",Added
atlantiss.eu,20140922,"We will not interfere in a case of whispering to someone such things as ""you are stupid, I'm not playing with you"" - there is an ""ignore"" function or just do not care about them. We will do something only in a severe situation.",Added
atlantiss.eu,20140922,"In the case of continous and groundless banning/kicking/muting players by the owner there are sought penalties, Administrators will decide about them.",Added
atlantiss.eu,20140922,We do not transfer characters from other servers. (Does not apply between 14.03.2014 and 14.04.2014).,Added
atlantiss.eu,20140922,"Atlantiss administration staff does not force anybody to play on the server. If, by any reason, our server seems unsuitable for you – choose a different one and do not vent your anger or frustration on the forum or in the game.",Added
atlantiss.eu,20140922,"You may recognize a GM by a ""Blizz"" logo by their nickname and ""GM"" title above their character. The majority of GMs’ public characters are also members of the ""Administracja"" guild. If, by any chance, there is a suspicion of someone impersonating a GM, you may request the individual to prove his status. In such case, a GM will use a command, e.g. teleport. Impersonation of any administration staff member in any way (simply calling oneself an administrator, dev, GM; using the ""Blizz"" logo; any similar behaviour) is strictly forbidden.",Added
atlantiss.eu,20140922,"Every administration staff member is allowed to enter a raid of any guild/party, except his personal character’s own guild/party.",Added
atlantiss.eu,20140922,"During such action, the GM’s character is required to be in the GM mode and Invisible.",Added
atlantiss.eu,20140922,"In case of exploiting or bugging detection during such a visit, the investigating GM is allowed to wipe the raid, kick each raid member from the server or punish the raid members with a server ban.",Added
atlantiss.eu,20140922,"Every person playing on this server is equal, regardless of previous servers or the fraction (Alliance and Horde), player should be respected. Breaking this rule will be severely punished.",Added
atlantiss.eu,20140922,"Rigging arenas is forbidden. If we discover this type of action, then there will be deleted:",Added
atlantiss.eu,20140922,Multiboxing is forbidden in PvP (for example being in a queue for battleground in Alliance as well as in Horde).,Added
atlantiss.eu,20140922,"Baseless accusations of the administration staff member’s partiality, charges without proofs, insults and denigration of any member of the administration staff will be immediately punished with a ban.",Added
atlantiss.eu,20140922,It is forbidden to send addresses and links to private profiles on social networking websites. Intentional publication of personal details to embarrass or harm anyone will be punished.,Added
atlantiss.eu,20140922,Any kind of harmful actions against the server will be punished with a permanent ban.,Added
atlantiss.eu,20140922,"The penalty is put on an account, not the person. The only exception is an IP ban, which is being put on for acting in harmful ways against the server or repeatedly breaking the server rules.",Added
rising-gods.de,20110202,B3. Buguse:,Deleted
rising-gods.de,20110202,§ B3.1 Temporäre Verbote,Deleted
rising-gods.de,20110202,§ B3.1.1 Missachten der Temporären Verbote:,Deleted
rising-gods.de,20110202,6 Tage Bann,Deleted
rising-gods.de,20110202,§ B3.1.2 Bei neuen temporären Verboten:,Deleted
rising-gods.de,20110202,§ B.7.2 Missachten temporärer Verboten,Deleted
rising-gods.de,20110202,am 1.Tag: Verwarnung,Deleted
rising-gods.de,20110202,ab 2.Tag oder im Wiederholungsfall: 6 Tage Bann,Deleted
rising-gods.de,20110202,§ B3.2 Ausnutzen von offensichtlichen Bugs die noch nicht bekannt waren:,Deleted
rising-gods.de,20110202,bis 9 Tage Bann,Deleted
rising-gods.de,20110202,§ B4. Multiboxing:,Deleted
rising-gods.de,20110202,"gemeint ist hierbei das Ziehen/Leveln der eigenen Chars (Twinks) mit Hilfe eines eigenen höherstufigen Chars, oder das Bespielen von Schlachtfeldern und / oder Instanzen mit mehreren eigenen Charakteren zugleich.",Deleted
rising-gods.de,20110202,"45 Tage Bann, -10 Level für jeden beteiligten Char, wenn der Char zu niedrig ist wird er gelöscht",Deleted
rising-gods.de,20110202,B7. Acc-Sharing = Weitergabe der Accountdaten (Name + Passwort) an andere Spieler:,Deleted
rising-gods.de,20110202,B8. Name des Chars entspricht nicht den Serverregeln:,Deleted
rising-gods.de,20110202,Kostenpflichtige Umbenennung mit dem Premium Rename (5 Euro) oder für 5000G - pro fehlende 250G gibt es 1 Tag Bann,Deleted
rising-gods.de,20110202,"(Chars bis Level 15 werden gelöscht und der Spieler wird 20 Tage gebannt - es sei denn es sind auf dem Account 5000 Gold auf einem Char vorhanden, über Level 15 ist Gold Pflicht - wenn keines vorhanden ist kommt der Bann als Ausgleich)",Deleted
rising-gods.de,20110202,§ B9. Allgemeiner Verstoß gegen die Serverregeln:,Deleted
rising-gods.de,20110202,10 Tage Bann bis zum permanentem Bann (wird nur angewendet wenn die Strafe nicht schon durch einen anderen Punkt im Bußgeldkatalog festgelegt ist),Deleted
rising-gods.de,20110202,B10. Dauer-AFK im BG:,Deleted
rising-gods.de,20110202,"Dauerhaft durch Addons oder andere Tools, ins BG joinen und / oder dort nicht am Kampf teilnehmen, wird mit einem Kick bestraft. Im Wiederholungsfall, bis zum 6 Tage Bann.",Deleted
rising-gods.de,20110202,"Das Töten von Spielern gleich oder unter Level 10 im Startgebiet ist verboten, es sei denn der Spieler greift euch zuerst an.",Deleted
rising-gods.de,20110202,(Meldungen können nur mit aussagekräftigem Screen und vollständigem Kampflog bearbeitet werden),Deleted
rising-gods.de,20120126,Auch die restlichen Vergehen o.g. werden mit einem permanenten Bann geahndet!,Added
rising-gods.de,20120126,"Weitergabe von Account Daten an andere Leute (inkl. Bekannte, Verwandte, Hund, Katze, Maus..): 45 Tage Bann",Added
rising-gods.de,20120126,"Dies dient zum Schutz eures Accounts. Wenn ihr Chars, Gold oder auch Items verliert, weil ihr euer Passwort weitergegeben habt, könnt ihr diesbezüglich keinerlei Support von uns erwarten.",Added
rising-gods.de,20120126,"Auch wenn nur 1 Acc geshared wird, um z.B. einen Erfolg zu erreichen und dadurch ein Char von 2 oder mehreren Personen gespielt wird, werden alle beteiligten Accounts bestraft!",Added
rising-gods.de,20120126,§ B.4 Multiboxing,Added
rising-gods.de,20120126,"§ B.4.1 Alle Charaktere des Accounts werden bestraft, zudem wird der Account für 45 Tage gebannt.",Added
rising-gods.de,20120126,§ B.4.2 Im Wiederholungsfall permanent!,Added
rising-gods.de,20120126,Stufe 70-80: 3 Stufen down,Added
rising-gods.de,20120126,Stufe 51-70: 5 Stufen down,Added
rising-gods.de,20120126,Stufe 16-50: 10 Stufen down,Added
rising-gods.de,20120126,< Stufe 15: Leveldown auf Stufe 1,Added
rising-gods.de,20120126,§ B.5 Arenapushing,Added
rising-gods.de,20120126,Hiermit ist das pushen von 2 Arenateams mit abwechselnden Niederlagen gemeint.,Added
rising-gods.de,20120126,Außerdem werden hier auch jegliche Absprachen zwischen 2 kämpfenden Arenateams eingeschlossen.,Added
rising-gods.de,20120126,Strafe:,Added
rising-gods.de,20120126,"- Entfernung aller PvP-Items, egal ob mit Ehre oder Arenapunkten gekauft!",Added
rising-gods.de,20120126,"- Zurücksetzen von Ehre, Arena- und Teamwertung, sowie Arenapunkten",Added
rising-gods.de,20120126,- 14 Tage Bann,Added
rising-gods.de,20120126,- Löschen der beteiligten Arenateams,Added
rising-gods.de,20120126,"§ B.6 Beleidigungen, Drohungen, sexuelle Anspielungen",Added
rising-gods.de,20120126,Beleidigungen § B.6.1 Einfacher Verstoß: Verwarnung und/oder,Added
rising-gods.de,20120126,60 Minuten Mute,Added
rising-gods.de,20120126,§ B.6.2 Mittlerer Verstoß: 3-6 Tage Bann,Added
rising-gods.de,20120126,§ B.6.3 Schwerer Verstoß: 7 Tage – permanenter Bann,Added
rising-gods.de,20120126,(Die Beleidigungen werden vom Gamemaster immer im Kontext bewertet und können im Einzelfall immer zu einer Klärung im TS gesetzt werden.),Added
rising-gods.de,20120126,Drohungen,Added
rising-gods.de,20120126,§ B.6.4 Einfacher Verstoß: Verwarnung und/oder 120 Minuten Mute,Added
rising-gods.de,20120126,§ B.6.5 Mittlerer Verstoß: 3 - 6 Tage Bann,Added
rising-gods.de,20120126,§ B.6.6 Schwerer Verstoß: 10 Tage – permanenter Bann,Added
rising-gods.de,20120126,(Die Drohungen werden vom Gamemaster immer im Kontext bewertet und können im Einzelfall immer zu einer Klärung im TS gesetzt werden.),Added
rising-gods.de,20120126,Sexuelle Anspielungen,Added
rising-gods.de,20120126,§ B.6.7 Einfacher Verstoß: Verwarnung durch GM und/oder bis zu 48h Mute,Added
rising-gods.de,20120126,§ B.6.8 Mittlerer Verstoß: 3 - 6 Tage Bann,Added
rising-gods.de,20120126,§ B.6.9 Schwerer Verstoß: 10 Tage - permanenter Bann,Added
rising-gods.de,20120126,(Die sexuellen Anspielungen werden vom Gamemaster immer im Kontext bewertet und können im Einzelfall immer zu einer Klärung im TS gesetzt werden.),Added
rising-gods.de,20120126,"Verbale Anstiftung zu Gewalt oder Drogenkonsum, sowie dessen Verherrlichung",Added
rising-gods.de,20120126,§ B.6.10 Einfacher Verstoß: Verwarnung und/oder bis zu 24h Mute,Added
rising-gods.de,20120126,§ B.6.11 Mittlerer Verstoß: 3-6 Tage Bann,Added
rising-gods.de,20120126,§ B.6.12 Schwerer Verstoß: 7 Tage – permanenter Bann,Added
rising-gods.de,20120126,(Die Anstiftungen sowie Verherrlichungen werden vom Gamemaster immer im Kontext bewertet und können im Einzelfall immer zu einer Klärung im TS gesetzt werden.),Added
rising-gods.de,20120126,B.7.1 Neue temporäre Verbote,Added
rising-gods.de,20120126,"Innerhalb der ersten 7 Tagen, nach Bekanntgabe des Verbots, wird generell verwarnt!",Added
rising-gods.de,20120126,"Sollte der Spieler wegen dem neuen Verbot schon verwarnt worden sein, greift § B.7.2",Added
rising-gods.de,20120126,§ B.7.2 Missachten temporärer Verboten,Added
rising-gods.de,20120126,Erster Verstoß: Verwarnung bis zu 3 Tage Bann,Added
rising-gods.de,20120126,danach: Verdopplung der vorangegangenen Bannzeit,Added
rising-gods.de,20120126,B.9 Ausnutzen von offensichtlichen Bugs zum Leveln und Skillen,Added
rising-gods.de,20120126,"Alle Charaktere des Accounts werden bestraft, zudem wird der Account für 45 Tage gebannt. Im Wiederholungsfall permanent!",Added
rising-gods.de,20120126,"Wer die PvP-freien Bereiche, sowie die Regeln eins vom RG-Team angekündigten Events missachtet, muss bei:",Added
rising-gods.de,20120126,§ B.13 Spammen in öffentlichen Channels,Added
rising-gods.de,20120126,"Gilt insbesondere für Spams, die mindestens 3 Zeilen lang sind, oder 3-Zeilige Makros (gespammt)!",Added
rising-gods.de,20120126,- Entweder: Nutzung eines Renamecodes,Added
rising-gods.de,20120126,"- Oder: Beim ersten Mal wird insgesamt 10000 Gold von den Charakteren des Accounts entfernt. Sollten keine 10000 Gold vorhanden sein, wird pro 1000 Gold, welche fehlen, ein Tag Bann ausgesprochen.",Added
rising-gods.de,20120126,"Gold wird immer abgezogen, NUR wenn nicht vorhanden, wird gebannt. (keine Auswahl für den Spieler)",Added
rising-gods.de,20120126,(d.h. im schlimmsten Fall 10 Tage Bann),Added
rising-gods.de,20120126,§ B.15 Dauerhaft AFK im Battleground,Added
rising-gods.de,20120126,1. Mal: Verwarnung per Post und Kick,Added
rising-gods.de,20120126,danach: 1 Woche – permanent Bann,Added
rising-gods.de,20120126,§ B.16 Töten von Lowies (max. Stufe 10 PvE & PvP Realm):,Added
rising-gods.de,20120126,Erstes Mal: Verwarnung,Added
rising-gods.de,20120126,danach: 4-9 Tage Bann,Added
rising-gods.de,20120126,"(greift der Lowie zuerst an, ist diese Regelung hinfällig, daher wird ein vollständiger Kampftext benötigt!)",Added
rising-gods.de,20120126,§ B.17 Allgemeiner Verstoß gegen die Serverregeln,Added
rising-gods.de,20120126,Bis zu einem permanenten Bann!,Added
rising-gods.de,20120126,Bei neuen Verboten (max. 72 Stunden alt) : Verwarnung,Added
retro-wow.com - tos,20141015,"""Donation Points"" means RetroWoW virtual coins that RetroWoW makes available for purchase by Users subject to the terms of the appropriate License. All obtained coins are valid for 30 calendar days;",Deleted
retro-wow.com - tos,20141015,"""Service"" means collectively any online facilities, tools, services or information that RetroWoW makes available through the Web Site either now or in the future;",Deleted
retro-wow.com - tos,20141015,"""Payment Information"" means any details required for the purchase of RetroWoW Donation Pointsfrom this Web Site. This includes, but is not limited to, names, addresses, credit / debit card numbers, bank account numbers and sort codes;",Deleted
retro-wow.com - tos,20141015,"""Purchase Information"" means collectively any orders, invoices, confirmation emails, receipts or similar that may be in hard copy or electronic form;",Deleted
retro-wow.com - tos,20141015,"""System"" means any online communications infrastructure that RetroWoW makes available through the Web Site either now or in the future. This includes, but is not limited to, web-based email, message boards, live chat facilities and email links;",Deleted
retro-wow.com - tos,20141015,"""User"" / ""Users"" means any third party that accesses the Web Site and is not employed by RetroWoW and acting in the course of their employment;",Deleted
retro-wow.com - tos,20141015,"""Web Site"" means the website that you are currently using http://retro-wow.com and any sub-domains of this site (e.g. http://retrowow-com/forum) unless expressly excluded by their own terms and conditions.",Deleted
retro-wow.com - tos,20141015,RetroWoW aims to always provide high quality virtual items (obtained in exchange to Donation Points) that is fault free. Faults include and are not limited to data corruption.,Deleted
retro-wow.com - tos,20141015,1.1 This Refund Policy covers only faults that impair the use of the RetroWoW Donation Points.,Deleted
retro-wow.com - tos,20141015,1.2 This Refund Policy does not cover use difficulties arising out of issues such as file incompatibility or minor mistakes in Virtual items itself such as spelling errors or graphical faults that do not result from data corruption.,Deleted
retro-wow.com - tos,20141015,1.3 RetroWoW Donation Points cannot be exchanged back into a currency. Purchases of RetroWoW Donation Points sets are not refundable.,Deleted
retro-wow.com - tos,20141015,"1.4 If a purchased set of RetroWoW Donation Points is not exchanged into the virtual items during 30 calendar days it then is no longer valid and cannot be a subject of refund. Refund requests of RetroWoW Donation Points purchases within 30 calendar days are at the exclusive discretion of RetroWoW's management. If a virtual item was given to a user on terms of bonus, gift or promotion then it cannot be a subject of refund into RetroWoW Donation Points.",Deleted
retro-wow.com - tos,20141015,"1.5 If a virtual item contains faults on download, you should inform RetroWoW immediately and must inform us within 24 hours of the download in order to receive RetroWoW Donation Points back equal to the purchase price of the relevant virtual item. Any notification received outside of this time period is at the exclusive discretion of RetroWoW's management.",Deleted
retro-wow.com - tos,20141015,1.6 Accidental purchases of RetroWoW Donation Points occurred as a result of technical fault in the payment system you paid through must be disputed with the respective payment processor. RetroWoW is not responsible for any technical faults arising at payment processors. RetroWoW is not in charge of handling credit/debit and bank transactions undertaken to purchase RetroWoW Donation Points.,Deleted
retro-wow.com - tos,20141015,"1.7 Where any refund is issued under any circumstances, RetroWoW reserves the right to suspend the respective account with the Web Site.",Deleted
retro-wow.com - tos,20141015,"1.8 For all enquiries about the status of your orders, please contact us: payment.retrowow@gmail.com",Deleted
retro-wow.com - tos,20152903,Certain user information collected through the use of this website is automatically stored for reference.,Added
retro-wow.com - tos,20152903,"We track such information to perform internal research on our users' demographic interests and behaviour and to better understand, protect and serve our community of users.",Added
retro-wow.com - tos,20152903,"Payment or any other financial information is NEVER submitted, disclosed or stored on the Site and is bound to Terms and Conditions and Privacy Policy of our respective partners and/or payment processors.",Added
retro-wow.com - tos,20152903,"Basic user information (such as IP address, logs for using website interface and account management) may be disclosed to our partners in mutual efforts to counter potential illegal activities.",Added
retro-wow.com - tos,20152903,"RetroWoW makes significant effort to protect submitted information to prevent unauthorised access to that information in its internal procedures and technology. However, we do not guarantee, nor should you expect, that your personal information and private communications will always remain private.",Added
omegawow.eu,20181118,Please take the time to read through this list of rules which are enforced on our forum. They are important and one should be aware of what he/she can do and what not. Do note that warnings or bans can be given out for not respecting the rules. Three warnings will result in a one week ban.,Deleted
omegawow.eu,20181118,General,Deleted
omegawow.eu,20181118,Spamming is not allowed;,Deleted
omegawow.eu,20181118,Posting links to illegal websites or providing links for Warez is highly prohibited;,Deleted
omegawow.eu,20181118,"Using our forum to advertise things for your own personal benefit is not allowed. Advertising for your own private server or other servers is not allowed, not in topics, not in your signature, not in your avatar and not through private messaging.",Deleted
omegawow.eu,20181118,Advertising in any way will result in a permanent banishment from OmegaWoW's forums AND server.,Deleted
omegawow.eu,20181118,"Using two or more accounts on one topic in an attempt to manipulate other players, damage statistics counts, break any of the other rules, talk to yourself in an attempt to start a discussion etc. will result in a warning.",Deleted
omegawow.eu,20181118,Posting,Deleted
omegawow.eu,20181118,"Use English. When introducing yourself or your guild, you may use another language, but a correct English translation must be present, or your post will be deleted;",Deleted
omegawow.eu,20181118,"If there is a guideline available in the section where you want to create a topic then read it and stick to the guidelines mentioned in it. If you fail to do this, we might delete your topic or move it to the Graveyard. If you do not take the time to file a proper report then we will mark it as incomplete and archive it;",Deleted
omegawow.eu,20181118,Please take the time to post your topic in the right section of the forum;,Deleted
omegawow.eu,20181118,"Stay on topic, do not go off-topic with replies that have nothing to do with the subject posted by the topic starter;",Deleted
omegawow.eu,20181118,"If you need assistance then ask this in a normal and appropriate way, topics with a ""demanding and rude"" tone are frowned upon;",Deleted
omegawow.eu,20181118,Never post topics or replies containing sexual content on the forum;,Deleted
omegawow.eu,20181118,Creating blacklists (of any sort) on the forum is not allowed and neither is discriminating one another or calling someone names;,Deleted
omegawow.eu,20181118,Portraying nationalities in a negative standing and being racist to others will result in severe punishment.,Deleted
omegawow.eu,20181118,"Posting videos, photos, or downright making fun of disabilities, diseases, illnesses, or people who are affected by those will result in severe punishment.",Deleted
omegawow.eu,20181118,No bumping! Bumping is only allowed if the last post in the topic is more than one month old.,Deleted
omegawow.eu,20181118,The Staff,Deleted
omegawow.eu,20181118,Offensive activity towards the staff member(s) can result in a severe punishment;,Deleted
omegawow.eu,20181118,"Do not burden the staff members by PMing each one of them about your problem, to see who you can contact for what situation check the staff responsibilities topic;",Deleted
omegawow.eu,20181118,Do not send us applications for staff functions if applications are closed. If the staff thinks someone could perform a staff function then he or she will be contacted by us;,Deleted
omegawow.eu,20181118,"Do not PM Noxious or any other staff member with every single little problem you encounter, once again check the topic mentioned up here to see who you can contact for your problem, or post your problem on the forum in the appropriate section.",Deleted
omegawow.eu,20181118,"Complaining about bugs not getting fixed, or stating that the staff doesn't fix anything etc. will result in a warning.",Deleted
omegawow.eu,20181118,"Do not use avatars which make the forum slow down or become unstable. Such avatars will be manually removed by one of the Administrators. If you continue to upload such avatars, that function will be disabled for your forum account;",Deleted
omegawow.eu,20181118,Signatures that contain content which is in violation with our rules will be removed manually.,Deleted
omegawow.eu,20181118,"Signatures bigger than (Width: 650, Height: 270) are not allowed! If you continue to upload signatures bigger than that size, then the function will be disabled for your forum account.",Deleted
omegawow.eu,20181118,Keep Signature content only for text and images. Don't post videos in your signature as their Height goes above the limit of 270.,Deleted
omegawow.eu,20190109,:one: No spamming.,Added
omegawow.eu,20190109,:two: Posting links to illegal websites or providing links to various viruses and warez is instantly bannable.,Added
omegawow.eu,20190109,:three: No advertising in any way (especially to other private servers),Added
omegawow.eu,20190109,":four: Only speak English in #team-questions, #reports, #general, #horde, #alliance , #off-topic and #meme . We have language-specific channels for non-English conversations.",Added
omegawow.eu,20190109,":five: No posts containing explicit sexual content or gore (loosely moderated in our designated NSFW channel, #off-topic ).",Added
omegawow.eu,20190109,":six: No racist, sexist, homophobic of xenophobic remarks.",Added
omegawow.eu,20190109,:seven: Use common sense.,Added
nexuswow.org,20180501,11) MULTIBOXING,Added
nexuswow.org,20180501,"Multiboxing is permitted for PvE content. However, any multiboxing in arena, WG, or PvP will result in a temp ban, with permenant ban on repeat.",Added
nexuswow.org,20170124,"1) STAFF OR SERVER DISRESPECT: Mute as Warning, Temporary ban or Permanent ban if continued behaviour.",Deleted
nexuswow.org,20180501,"1) DISRESPECTING STAFF OR SERVER: Mute as Warning, Temporary or Permanent ban if behaviour continues.",Added
nexuswow.org,20170124,Information about the Rules and the consequences to broke them in-game and forums:,Deleted
nexuswow.org,20180501,"Information about the server, website and forum rules and the consequences of breaking them.",Added
eternal-wow.com - gm,20100706,Staff terms,Added
eternal-wow.com - gm,20100706,As a GM you will make the best effort to provide a healthy gaming environment for Eternal-WoW players.,Added
eternal-wow.com - gm,20100706,"As a GM you will not harass, insult, discriminate, or harm another player or staff member in any way.",Added
eternal-wow.com - gm,20100706,"As a GM you will not abuse your powers, by giving items away, affecting the game play of others negatively in the server, spamming, and giving players an unfair advantage.",Added
eternal-wow.com - gm,20100706,"As a GM you will not use commands that alter the natural state of a player (scale, money, health, level, etc).",Added
eternal-wow.com - gm,20100706,As a GM you understand that the administrators of Eternal-WoW may deem any conduct you partake in as against the rules regardless if it is specifically listed.,Added
eternal-wow.com - gm,20100706,"As a GM you will always be expected to uphold a level professionalism. For example, attempt to sound competent when typing, do not make tons of spelling errors. Furthermore, don't get into an argument with a player, always stay calm and passive.",Added
eternal-wow.com - gm,20100706,"As a GM you will respect all players, and members of the Eternal-WoW staff.",Added
eternal-wow.com - gm,20100706,As a GM you will properly administer the correct items to be given away at the conclusion of events.,Added
eternal-wow.com - gm,20100706,As a GM you will never give away donation items.,Added
eternal-wow.com - gm,20100706,"As a GM you will spend a reasonable amount of time in the server, answering tickets and facilitating the healthy gaming environment of Eternal-WoW.",Added
eternal-wow.com - gm,20100706,"As a GM you will submit any bugs, issues, or glitches involving the server, a player, or anything else to the Eternal-WoW administration.",Added
eternal-wow.com - gm,20100706,"As a GM you will not PvP on your account (this extends to dueling, arena matches, warsong, etc...) You are not meant to be fighting at all against players on your GM account. You must create a separate account without GM access to PvP",Added
eternal-wow.com - gm,20100706,"As a GM you will not join any normal guild, only the Eternal-WoW staff guild.",Added
eternal-wow.com - gm,20100706,"As a GM any code, applications, or programs created for the server are property of Eternal-WoW.",Added
eternal-wow.com - gm,20100706,"As a GM you pledge to act with professionalism and act mature both amongst the staff and in public. You represent Eternal-WoW, we do not wish to tarnish our name or act shamefully in public.",Added
eternal-wow.com - gm,20100706,"NEVER POST A THREAD, TICKET, PRIVATE MESSAGE, OR CONTACT A STAFF MEMBER REGARDING YOUR APPLICATION. IF WE ARE INTERESTED WE WILL POST IN YOUR THREAD, CONTACTING US FURTHER WILL RESULT IN AN IMMEDIATE DECLINE OF YOUR APPLICATION.",Added
eternal-wow.com - gm,20100706,"In the case that your application is accepted you will be kept under a trial period of 1 to 2 weeks in which the staff shall evaluate your performance as a Staff member. If felt necessary at any time we may revoke your GM privileges, regardless of the reason.",Added
eternal-wow.com - gm,20100706,"In your application please do not give us BS saying ""I love helping people"". We want tangible facts about your experience, spouting bloated praise for the server and how you enjoy helping people will only hurt your chances. Additionally under skills please put actual skills like coding in a specific language or you can use photoshop extremely well. Being a ""fast learner"" and ""having patience"" are not skills. Furthermore, you must be a part of and familiar with the Eternal-WoW community it is recommended one is well known before they post an application.",Added
eternal-wow.com - gm,20100706,DO NOT APPLY IF YOU JUST FOUND THE SERVER TODAY. WE ARE LOOKING FOR PEOPLE FAMILIAR WITH OUR COMMUNITY.,Added
web.vcnwow.net,20190720,VIP ACCOUNT RULEST:,Added
web.vcnwow.net,20190720,"1. Every Rule mentioned above, applies to VIP Account Holders as well!",Added
web.vcnwow.net,20190720,"2. Under any circumstances you are to use .chat [Global Chat] to complain, argue with staff, argue with other VIPs or players, this command is a privilege and will be removed from your account without warnings.",Added
web.vcnwow.net,20190720,Remember it's a Global Chat that everyone sees. The last thing we need is for our players to see your arguments or drama.,Added
web.vcnwow.net,20190720,"3. GM Island is off limits when Gamemasters are present on the island. A Gamemaster can be doing Donation Tickets, Providing Support to a player or Testing something important.",Added
web.vcnwow.net,20190720,Redrum Realm Specifics,Added
web.vcnwow.net,20190720,Players are not allowed to camp others players in World PvP Graveyards | Example: Gurubashi Arena).,Added
web.vcnwow.net,20190720,This rule does not apply to Battlegrounds.,Added
web.vcnwow.net,20190720,Players ignoring this rule will receive 2 warnings after which a character ban will be placed on the account.,Added
web.vcnwow.net,20190720,"If you are in Gurubashi Arena expect to be attacked, this is a PvP Funserver, Gurubashi Arena is a World PvP Area and players have all the right to attack you. If you wish to duel a friend choose Custom Duel Area. If you plan to AFK teleport to the mall.",Added
www.nostalgeek-serveur.com,20091121,NA,Deleted
www.nostalgeek-serveur.com,20100921,Les services achetés sur notre boutique sont temporaires dans plusieurs cas :,Added
www.nostalgeek-serveur.com,20100921,"-En cas de bannissement de votre compte, vous ne serez en aucun cas remboursés, vous perdrez l'accès à votre compte et donc l'accès à vos personnages bénéficiants de ces services (cf : partie ""7.Bannissement et boutique""plus bas).",Added
www.nostalgeek-serveur.com,20100921,-Fermeture prématuré du serveur suite à une décision de justice ou autre.,Added
www.nostalgeek-serveur.com,20100921,-Ou au bout de 5 mois sans connexion sur votre compte (suppression annuelle des comptes ne s'étant pas connectés depuis au moins 5 mois).,Added
www.nostalgeek-serveur.com,20100921,"Les services achetés sur la boutique sont donc tous temporaires, n'achetez pas si vous n'êtes pas d'accord avec nos CGV.",Added
www.nostalgeek-serveur.com,20100921,AUCUN remboursement ne sera effectué pour les cas présentés ci-dessus.,Added
www.nostalgeek-serveur.com,20100921,"Nous nous réservons le droit à des fins de gestion des ressources limitées du serveur, de supprimer les comptes ayant une date de dernière connexion antérieure à 5 mois. AUCUN remboursement ne sera effectué.",Added
www.nostalgeek-serveur.com,20100921,"Si vous n'êtes pas en accord avec les mentions ci-dessus, merci de ne pas acheter sur notre site, si toutefois vous achetez sur notre site et que vous êtes en désaccord avec nos conditions générales de ventes vous serez le seul responsable pour cause d'avoir obligatoirement coché la case indiquant que vous acceptez les conditions générales de ventes de notre site lors d'un achat..",Added
www.nostalgeek-serveur.com,20100921,5. Achat de Niveaux,Added
www.nostalgeek-serveur.com,20100921,"Lorsque vous achetez des niveaux dans la boutique, voici ce que vous recevrez :",Added
www.nostalgeek-serveur.com,20100921,-Le niveau désiré.,Added
www.nostalgeek-serveur.com,20100921,-Les compétences actuelle du personnage mises au maximum du niveau.,Added
www.nostalgeek-serveur.com,20100921,-6 Pièces d'or par niveau passé.,Added
www.nostalgeek-serveur.com,20100921,-23 points de vol de votre faction.,Added
www.nostalgeek-serveur.com,20100921,"-Une téléportation dans une zone spéciale comprenant : un vendeur de stuff vert 43 -56 ainsi que des sacs 10 emplacement et des montures 60%, des mannequins de combat pour monter vos compétences d'arme et de défense, ainsi qu'un maître de compétences (armes, armures, monte 75).",Added
www.nostalgeek-serveur.com,20100921,Vous n'aurez rien de plus de ce qui est listé ci-dessus.,Added
www.nostalgeek-serveur.com,20100921,"Si vous quittez la zone spéciale (utilisation du portail de ville, ou tentative de passer les barrières) vous ne pourrez pu y revenir, et nous ne vous téléporterons pas à nouveau là-bas.",Added
www.nostalgeek-serveur.com,20100921,6. PAYPAL,Added
www.nostalgeek-serveur.com,20100921,"Une fois votre paiement effectué, et lors de votre retour sur notre site, vous serez crédités du nombre de Nostalpoints achetés instantanément.",Added
www.nostalgeek-serveur.com,20100921,"Toutes modifications frauduleuses du formulaire PAYPAL est vérifié par un script, si il y a bien eu fraude vous ne serez pas crédités en Nostalpoints et nous ne vous rembourserons PAS. De plus sachez que chaque achat via paypal est sauvegardé dans notre base de donnée, nous nous réservons le droit d'enregistrer : la date du paiement, l'adresse email de l'acheteur et du vendeur utilisé lors de l'exécution du script, ainsi que le montant.",Added
www.nostalgeek-serveur.com,20100921,7. Bannissement et achats,Added
www.nostalgeek-serveur.com,20100921,"En cas de bannissement définitif de votre compte de jeu, tous les services achetés sur les personnages du compte via la boutique seront perdu et AUCUN remboursement ne sera effectué.",Added
www.nostalgeek-serveur.com,20100921,"Voici les raisons basiques d'un bannissement (une seule raison suffit pour un bannissement définitif) mais la plupart du temps vous disposerez de 3 avertissements, mais ce n'est en aucun cas garanti !",Added
www.nostalgeek-serveur.com,20100921,-Insultes/harcèlement répété ou non en vers un membre de l'équipe ou un joueur.,Added
www.nostalgeek-serveur.com,20100921,-Exploit de bug sur le serveur de jeu ou sur le site internet.,Added
www.nostalgeek-serveur.com,20100921,-Usurpation d'identité.,Added
www.nostalgeek-serveur.com,20100921,-Tentative de social engineering ou tout autre forme de manipulation sociale envers l'équipe ou un joueur.,Added
www.nostalgeek-serveur.com,20100921,-Hacking/Phishing ou tout autre tentative frauduleuse sur le site internet et le serveur de jeu.,Added
www.nostalgeek-serveur.com,20100921,-Utilisation de logiciels tiers à des fins de modification frauduleuse du jeu.,Added
www.nostalgeek-serveur.com,20100921,"Nous nous réservons le droit à des fins de gestion des ressources limitées du serveur, de supprimer les comptes ayant une date de dernière connexion antérieure à 5 mois.",Added
www.nostalgeek-serveur.com,20100921,Serveur de jeu compilé et retravaillé par Lorh.,Added
vanillagaming.org,20150315,Players are never to use or abuse server sided issues/glitches for their own benefit.,Deleted
vanillagaming.org,20190719,"Definition of bug use in general is performing an action which is in relation or dependant of a bug , advantage gained or not.",Added
vanillagaming.org,20190719,Players are never to use or abuse server sided issues/glitches. Exception applies to bugs that cannot be avoided in normal behaviour unless specifically forbidden.,Added
vanillagaming.org,20150315,Continuously insulting & harassing other players,Deleted
vanillagaming.org,20190719,Continuously and / or solely without other content insulting & harassing other players,Added
vanillagaming.org,20150315,- Leaking personal information of staff members/players to public,Deleted
vanillagaming.org,20190719,Any sort of blackmarket activity leads to a permanent ban. This ban is non-appealable!,Added
wowmortal.com,20120301,9. Resilience Stacking is strictly forbidden. Your damage reduction against all damage done by players or their pet(s)/minion(s) Shouldn’t Be more than 80%. You can only have more than 80% damage reduction only if you have non of Resilience gems on your gear.(For Warground and Graveyard Only),Deleted
wowmortal.com,20120301,14. Pvping in any Horde/Alliance/Global Malls is strictly forbidden.(This rule it's only for Graveyard realm only),Deleted
wowmortal.com,20120301,15. Using any other Donor Item except Donor Weapons and Donor Bags in BattleGrounds and in 2v2/3v3/5v5 Arenas is strictly forbidden. Also Donors aren't allowed in Dire Maul Arena (Non Donor arena) With any Kind of Donor item.(This rule is for Warground realm only),Deleted
wowmortal.com,20120301,16. Using any Custom Item including S9 Weapons/Armor-Vote Tabards etc. in Gurubashi Arena-The Great Arena (Non Custom Arena) is forbidden. (This rule is for Graveyard Realm only),Deleted
wowmortal.com,20120301,18. From now on you are only allowed to have no more than 3 meta sockets which are Reducing the Stun/Silence/Snare-Root Duration equipped to your gear (First time offense is a warning/ Second time offense is one day ban etc.) [For Warground and Graveyard Only],Deleted
wowmortal.com,20140803,-If you don't understand any of the following rules Personal Message me or any other Staff member.,Added
wowmortal.com,20140803,"14. ""Multiboxing"" is not allowed. (You are not allowed to be online on 2 or more accounts at the same time.)",Added
wowmortal.com,20140803,15. Making False allegations(occured as the result of intentional lying) to discreditate the public image of any Staff memeber is an banable offence.,Added
wowmortal.com,20140803,"16. Scaming and ninja looting are strictly forbidden. If proof is provided, you risk to be banned.",Added
wowmortal.com,20140803,"17. Healers are now forbidden to enter in 1v1 arena. If an player will enter the 1v1 arena with an healing spec, he will be warned, kicked and if he does it again he will get banned for 1 day.",Added
wowmortal.com,20140803,-Many in-game rules may apply to the forums and to the forum Shoutbox as well.,Added
thenagainn.com,20160619,"...There aren't really any rules for PVE (yet), but we do encourage everyone to treat leveling OOCly.",Changed
thenagainn.com,20160820,"...There aren't really any rules for PVE (yet), but we do encourage everyone to treat leveling OOCly unless the person playing their character is keeping it at a lower level for IC reasons.",Changed
